EESchema Schematic File Version 4
EELAYER 30 0
EELAYER END
$Descr A4 11693 8268
encoding utf-8
Sheet 1 1
Title "555-badge"
Date "2020-05-23"
Rev "v01"
Comp ""
Comment1 ""
Comment2 "creativecommons.org/licenses/by/4.0"
Comment3 "License: CC BY 4.0"
Comment4 "Author: Brian Wong"
$EndDescr
$Comp
L 555-timer:7555 U1
U 1 1 5EC9562D
P 5800 3900
F 0 "U1" H 6294 3896 50  0000 L CNN
F 1 "7555" H 6294 3805 50  0000 L CNN
F 2 "555-timer:ICM7555-PDIP" H 5800 4100 50  0001 C CNN
F 3 "" H 5800 4100 50  0001 C CNN
	1    5800 3900
	1    0    0    -1  
$EndComp
$Comp
L Device:R R1
U 1 1 5EC96198
P 4900 3650
F 0 "R1" H 4970 3696 50  0000 L CNN
F 1 "22k" H 4970 3605 50  0000 L CNN
F 2 "Resistor_THT:R_Axial_DIN0207_L6.3mm_D2.5mm_P7.62mm_Horizontal" V 4830 3650 50  0001 C CNN
F 3 "~" H 4900 3650 50  0001 C CNN
	1    4900 3650
	1    0    0    -1  
$EndComp
$Comp
L Device:R R2
U 1 1 5EC972FF
P 4900 4250
F 0 "R2" H 4970 4296 50  0000 L CNN
F 1 "330k" H 4970 4205 50  0000 L CNN
F 2 "Resistor_THT:R_Axial_DIN0207_L6.3mm_D2.5mm_P7.62mm_Horizontal" V 4830 4250 50  0001 C CNN
F 3 "~" H 4900 4250 50  0001 C CNN
	1    4900 4250
	1    0    0    -1  
$EndComp
$Comp
L Device:R R3
U 1 1 5EC97AB6
P 6700 4400
F 0 "R3" V 6493 4400 50  0000 C CNN
F 1 "22k" V 6584 4400 50  0000 C CNN
F 2 "Resistor_THT:R_Axial_DIN0207_L6.3mm_D2.5mm_P7.62mm_Horizontal" V 6630 4400 50  0001 C CNN
F 3 "~" H 6700 4400 50  0001 C CNN
	1    6700 4400
	0    1    1    0   
$EndComp
$Comp
L Device:R R4
U 1 1 5EC98EBC
P 7150 4600
F 0 "R4" H 7220 4646 50  0000 L CNN
F 1 "100k" H 7220 4555 50  0000 L CNN
F 2 "Resistor_THT:R_Axial_DIN0207_L6.3mm_D2.5mm_P7.62mm_Horizontal" V 7080 4600 50  0001 C CNN
F 3 "~" H 7150 4600 50  0001 C CNN
	1    7150 4600
	1    0    0    -1  
$EndComp
$Comp
L Device:R R5
U 1 1 5EC998CE
P 7900 4400
F 0 "R5" V 7693 4400 50  0000 C CNN
F 1 "10k" V 7784 4400 50  0000 C CNN
F 2 "Resistor_THT:R_Axial_DIN0207_L6.3mm_D2.5mm_P7.62mm_Horizontal" V 7830 4400 50  0001 C CNN
F 3 "~" H 7900 4400 50  0001 C CNN
	1    7900 4400
	0    1    1    0   
$EndComp
$Comp
L Device:R R6
U 1 1 5EC9A5BB
P 8450 3300
F 0 "R6" H 8520 3346 50  0000 L CNN
F 1 "100" H 8520 3255 50  0000 L CNN
F 2 "Resistor_THT:R_Axial_DIN0207_L6.3mm_D2.5mm_P7.62mm_Horizontal" V 8380 3300 50  0001 C CNN
F 3 "~" H 8450 3300 50  0001 C CNN
	1    8450 3300
	1    0    0    -1  
$EndComp
$Comp
L Device:R R7
U 1 1 5EC9ADA5
P 9050 3300
F 0 "R7" H 9120 3346 50  0000 L CNN
F 1 "100" H 9120 3255 50  0000 L CNN
F 2 "Resistor_THT:R_Axial_DIN0207_L6.3mm_D2.5mm_P7.62mm_Horizontal" V 8980 3300 50  0001 C CNN
F 3 "~" H 9050 3300 50  0001 C CNN
	1    9050 3300
	1    0    0    -1  
$EndComp
$Comp
L Device:CP1 C1
U 1 1 5EC9B919
P 4900 4700
F 0 "C1" H 5015 4746 50  0000 L CNN
F 1 "10uF" H 5015 4655 50  0000 L CNN
F 2 "Capacitor_THT:CP_Radial_D5.0mm_P2.00mm" H 4900 4700 50  0001 C CNN
F 3 "~" H 4900 4700 50  0001 C CNN
	1    4900 4700
	1    0    0    -1  
$EndComp
$Comp
L Device:CP1 C2
U 1 1 5EC9C8EB
P 7500 4600
F 0 "C2" H 7615 4646 50  0000 L CNN
F 1 "100uF" H 7615 4555 50  0000 L CNN
F 2 "Capacitor_THT:CP_Radial_D5.0mm_P2.00mm" H 7500 4600 50  0001 C CNN
F 3 "~" H 7500 4600 50  0001 C CNN
	1    7500 4600
	1    0    0    -1  
$EndComp
$Comp
L Device:LED D1
U 1 1 5EC9D073
P 8450 3700
F 0 "D1" V 8489 3582 50  0000 R CNN
F 1 "RED" V 8398 3582 50  0000 R CNN
F 2 "LED_THT:LED_D3.0mm" H 8450 3700 50  0001 C CNN
F 3 "~" H 8450 3700 50  0001 C CNN
	1    8450 3700
	0    -1   -1   0   
$EndComp
$Comp
L Device:LED D2
U 1 1 5EC9DB9F
P 9050 3700
F 0 "D2" V 9089 3582 50  0000 R CNN
F 1 "RED" V 8998 3582 50  0000 R CNN
F 2 "LED_THT:LED_D3.0mm" H 9050 3700 50  0001 C CNN
F 3 "~" H 9050 3700 50  0001 C CNN
	1    9050 3700
	0    -1   -1   0   
$EndComp
$Comp
L Transistor_BJT:2N3904 Q1
U 1 1 5EC9E439
P 8350 4400
F 0 "Q1" H 8540 4446 50  0000 L CNN
F 1 "2N3904" H 8540 4355 50  0000 L CNN
F 2 "Package_TO_SOT_THT:TO-92_Inline" H 8550 4325 50  0001 L CIN
F 3 "https://www.fairchildsemi.com/datasheets/2N/2N3904.pdf" H 8350 4400 50  0001 L CNN
	1    8350 4400
	1    0    0    -1  
$EndComp
$Comp
L dk_Slide-Switches:EG1218 S1
U 1 1 5ECA65EC
P 4150 3750
F 0 "S1" H 4150 4031 50  0000 C CNN
F 1 "EG1218" H 4150 3940 50  0000 C CNN
F 2 "Digikey:Switch_Slide_11.6x4mm_EG1218" H 4350 3950 50  0001 L CNN
F 3 "http://spec_sheets.e-switch.com/specs/P040040.pdf" H 4350 4050 60  0001 L CNN
F 4 "EG1903-ND" H 4350 4150 60  0001 L CNN "Digi-Key_PN"
F 5 "EG1218" H 4350 4250 60  0001 L CNN "MPN"
F 6 "Switches" H 4350 4350 60  0001 L CNN "Category"
F 7 "Slide Switches" H 4350 4450 60  0001 L CNN "Family"
F 8 "http://spec_sheets.e-switch.com/specs/P040040.pdf" H 4350 4550 60  0001 L CNN "DK_Datasheet_Link"
F 9 "/product-detail/en/e-switch/EG1218/EG1903-ND/101726" H 4350 4650 60  0001 L CNN "DK_Detail_Page"
F 10 "SWITCH SLIDE SPDT 200MA 30V" H 4350 4750 60  0001 L CNN "Description"
F 11 "E-Switch" H 4350 4850 60  0001 L CNN "Manufacturer"
F 12 "Active" H 4350 4950 60  0001 L CNN "Status"
	1    4150 3750
	-1   0    0    -1  
$EndComp
$Comp
L dk_Battery-Holders-Clips-Contacts:BS-7 BAT1
U 1 1 5ECA9B17
P 3950 4400
F 0 "BAT1" H 4078 4453 60  0000 L CNN
F 1 "BS-7" H 4078 4347 60  0000 L CNN
F 2 "Digikey:Battery_Holder_Coin_2032_BS-7" H 4150 4600 60  0001 L CNN
F 3 "http://www.memoryprotectiondevices.com/datasheets/BS-7-datasheet.pdf" V 4150 4700 60  0001 L CNN
F 4 "BS-7-ND" H 4150 4800 60  0001 L CNN "Digi-Key_PN"
F 5 "BS-7" H 4150 4900 60  0001 L CNN "MPN"
F 6 "Battery Products" H 4150 5000 60  0001 L CNN "Category"
F 7 "Battery Holders, Clips, Contacts" H 4150 5100 60  0001 L CNN "Family"
F 8 "http://www.memoryprotectiondevices.com/datasheets/BS-7-datasheet.pdf" H 4150 5200 60  0001 L CNN "DK_Datasheet_Link"
F 9 "/product-detail/en/mpd-memory-protection-devices/BS-7/BS-7-ND/389447" H 4150 5300 60  0001 L CNN "DK_Detail_Page"
F 10 "BATTERY HOLDER COIN 20MM PC PIN" H 4150 5400 60  0001 L CNN "Description"
F 11 "MPD (Memory Protection Devices)" H 4150 5500 60  0001 L CNN "Manufacturer"
F 12 "Active" H 4150 5600 60  0001 L CNN "Status"
	1    3950 4400
	1    0    0    -1  
$EndComp
$Comp
L power:GND #PWR04
U 1 1 5ECAC286
P 4900 5000
F 0 "#PWR04" H 4900 4750 50  0001 C CNN
F 1 "GND" H 4905 4827 50  0000 C CNN
F 2 "" H 4900 5000 50  0001 C CNN
F 3 "" H 4900 5000 50  0001 C CNN
	1    4900 5000
	1    0    0    -1  
$EndComp
$Comp
L power:GND #PWR06
U 1 1 5ECACCB0
P 5750 5000
F 0 "#PWR06" H 5750 4750 50  0001 C CNN
F 1 "GND" H 5755 4827 50  0000 C CNN
F 2 "" H 5750 5000 50  0001 C CNN
F 3 "" H 5750 5000 50  0001 C CNN
	1    5750 5000
	1    0    0    -1  
$EndComp
$Comp
L power:GND #PWR07
U 1 1 5ECACFC1
P 7150 4950
F 0 "#PWR07" H 7150 4700 50  0001 C CNN
F 1 "GND" H 7155 4777 50  0000 C CNN
F 2 "" H 7150 4950 50  0001 C CNN
F 3 "" H 7150 4950 50  0001 C CNN
	1    7150 4950
	1    0    0    -1  
$EndComp
$Comp
L power:GND #PWR08
U 1 1 5ECAD30E
P 7500 4950
F 0 "#PWR08" H 7500 4700 50  0001 C CNN
F 1 "GND" H 7505 4777 50  0000 C CNN
F 2 "" H 7500 4950 50  0001 C CNN
F 3 "" H 7500 4950 50  0001 C CNN
	1    7500 4950
	1    0    0    -1  
$EndComp
$Comp
L power:GND #PWR010
U 1 1 5ECADF2A
P 8450 4950
F 0 "#PWR010" H 8450 4700 50  0001 C CNN
F 1 "GND" H 8455 4777 50  0000 C CNN
F 2 "" H 8450 4950 50  0001 C CNN
F 3 "" H 8450 4950 50  0001 C CNN
	1    8450 4950
	1    0    0    -1  
$EndComp
$Comp
L power:VCC #PWR02
U 1 1 5ECAE4AA
P 4450 3750
F 0 "#PWR02" H 4450 3600 50  0001 C CNN
F 1 "VCC" H 4465 3923 50  0000 C CNN
F 2 "" H 4450 3750 50  0001 C CNN
F 3 "" H 4450 3750 50  0001 C CNN
	1    4450 3750
	1    0    0    -1  
$EndComp
$Comp
L power:VCC #PWR03
U 1 1 5ECAF4F0
P 4900 3400
F 0 "#PWR03" H 4900 3250 50  0001 C CNN
F 1 "VCC" H 4915 3573 50  0000 C CNN
F 2 "" H 4900 3400 50  0001 C CNN
F 3 "" H 4900 3400 50  0001 C CNN
	1    4900 3400
	1    0    0    -1  
$EndComp
$Comp
L power:VCC #PWR05
U 1 1 5ECAF97D
P 5750 3300
F 0 "#PWR05" H 5750 3150 50  0001 C CNN
F 1 "VCC" H 5765 3473 50  0000 C CNN
F 2 "" H 5750 3300 50  0001 C CNN
F 3 "" H 5750 3300 50  0001 C CNN
	1    5750 3300
	1    0    0    -1  
$EndComp
$Comp
L power:VCC #PWR09
U 1 1 5ECAFEAC
P 8450 3050
F 0 "#PWR09" H 8450 2900 50  0001 C CNN
F 1 "VCC" H 8465 3223 50  0000 C CNN
F 2 "" H 8450 3050 50  0001 C CNN
F 3 "" H 8450 3050 50  0001 C CNN
	1    8450 3050
	1    0    0    -1  
$EndComp
$Comp
L power:VCC #PWR011
U 1 1 5ECB02A8
P 9050 3050
F 0 "#PWR011" H 9050 2900 50  0001 C CNN
F 1 "VCC" H 9065 3223 50  0000 C CNN
F 2 "" H 9050 3050 50  0001 C CNN
F 3 "" H 9050 3050 50  0001 C CNN
	1    9050 3050
	1    0    0    -1  
$EndComp
$Comp
L power:GND #PWR01
U 1 1 5ECB06A5
P 3950 5050
F 0 "#PWR01" H 3950 4800 50  0001 C CNN
F 1 "GND" H 3955 4877 50  0000 C CNN
F 2 "" H 3950 5050 50  0001 C CNN
F 3 "" H 3950 5050 50  0001 C CNN
	1    3950 5050
	1    0    0    -1  
$EndComp
Wire Wire Line
	3950 4600 3950 5050
Wire Wire Line
	3950 3850 3950 4200
Wire Wire Line
	4350 3750 4450 3750
Wire Wire Line
	4900 3400 4900 3500
Wire Wire Line
	4900 3800 5300 3800
Wire Wire Line
	4900 4100 4900 3800
Connection ~ 4900 3800
Wire Wire Line
	5300 3950 5200 3950
Wire Wire Line
	5200 3950 5200 4100
Wire Wire Line
	5200 4400 4900 4400
Wire Wire Line
	5300 4100 5200 4100
Connection ~ 5200 4100
Wire Wire Line
	5200 4100 5200 4400
Wire Wire Line
	4900 4550 4900 4400
Connection ~ 4900 4400
Wire Wire Line
	4900 4850 4900 5000
Wire Wire Line
	5750 4500 5750 5000
Wire Wire Line
	5750 3300 5750 3400
Wire Wire Line
	5900 3400 5900 3300
Wire Wire Line
	5900 3300 5750 3300
Connection ~ 5750 3300
Wire Wire Line
	6250 3950 6550 3950
Wire Wire Line
	6550 3950 6550 4400
Wire Wire Line
	6850 4400 7150 4400
Wire Wire Line
	7150 4450 7150 4400
Connection ~ 7150 4400
Wire Wire Line
	7150 4400 7500 4400
Wire Wire Line
	7500 4450 7500 4400
Connection ~ 7500 4400
Wire Wire Line
	7500 4400 7750 4400
Wire Wire Line
	7150 4750 7150 4950
Wire Wire Line
	7500 4750 7500 4950
Wire Wire Line
	8050 4400 8150 4400
Wire Wire Line
	8450 4200 8450 4050
Wire Wire Line
	8450 3450 8450 3550
Wire Wire Line
	8450 3050 8450 3150
Wire Wire Line
	8450 4600 8450 4950
Wire Wire Line
	9050 3850 9050 4050
Wire Wire Line
	9050 4050 8450 4050
Connection ~ 8450 4050
Wire Wire Line
	8450 4050 8450 3850
Wire Wire Line
	9050 3450 9050 3550
Wire Wire Line
	9050 3050 9050 3150
$EndSCHEMATC
