EESchema Schematic File Version 4
EELAYER 30 0
EELAYER END
$Descr A4 11693 8268
encoding utf-8
Sheet 1 1
Title ""
Date ""
Rev ""
Comp ""
Comment1 ""
Comment2 ""
Comment3 ""
Comment4 ""
$EndDescr
$Comp
L Device:R R1
U 1 1 5EC57B96
P 6500 4150
F 0 "R1" H 6570 4196 50  0000 L CNN
F 1 "15k" H 6570 4105 50  0000 L CNN
F 2 "" V 6430 4150 50  0001 C CNN
F 3 "~" H 6500 4150 50  0001 C CNN
	1    6500 4150
	1    0    0    -1  
$EndComp
$Comp
L pspice:VSOURCE V1
U 1 1 5EC584B4
P 4600 4200
F 0 "V1" H 4828 4246 50  0000 L CNN
F 1 "AC 1" H 4828 4155 50  0000 L CNN
F 2 "" H 4600 4200 50  0001 C CNN
F 3 "~" H 4600 4200 50  0001 C CNN
	1    4600 4200
	1    0    0    -1  
$EndComp
$Comp
L Device:C C1
U 1 1 5EC5A405
P 5550 3550
F 0 "C1" V 5298 3550 50  0000 C CNN
F 1 "2.2nF" V 5389 3550 50  0000 C CNN
F 2 "" H 5588 3400 50  0001 C CNN
F 3 "~" H 5550 3550 50  0001 C CNN
	1    5550 3550
	0    1    1    0   
$EndComp
Wire Wire Line
	4600 3900 4600 3550
Wire Wire Line
	4600 3550 5400 3550
Wire Wire Line
	5700 3550 6500 3550
Wire Wire Line
	6500 3550 6500 4000
Wire Wire Line
	4600 4500 5650 4500
Wire Wire Line
	6500 4500 6500 4300
$Comp
L pspice:0 #GND01
U 1 1 5EC5C722
P 5650 4850
F 0 "#GND01" H 5650 4750 50  0001 C CNN
F 1 "0" H 5650 4939 50  0000 C CNN
F 2 "" H 5650 4850 50  0001 C CNN
F 3 "~" H 5650 4850 50  0001 C CNN
	1    5650 4850
	1    0    0    -1  
$EndComp
Wire Wire Line
	5650 4850 5650 4500
Connection ~ 5650 4500
Wire Wire Line
	5650 4500 6500 4500
$EndSCHEMATC
